{
    "userName" : "wizkraft2",
    "password" : "dummypwd",
    "firstName" :  "abhinav",
    "lastName" :  "prakash",
    "phoneNumber" :  "7893405620",
    "bloodGroup" :  "B-ve",
    "latitude": "42.1000000",
    "longitude": "18.2000000",
    "volunteerToDonate" :  "True",
    "covidStatus" :  "covidStatus"
}